{
    "port": 4000,
    "jwtSecret": "=E2#SPKnx!u$u$6_mZ!$Yb3CHa#Fp6cbAbyv2XT42JyaWbK2+4by@m@xBqDBCU7bYd%rcrv-5K7_NQnybUT-X8U?3w9Jk@_MAUFaMu3b8PL2gppfrveznw+kd8Nwdtn9",
    "database":{
        "host": "localhost",
        "port": "27017",
        "dbName": "fastify"
    }
}